…
```r
library(dplyr)
library(ggplot2)
```


```r
#Total Number of Steps by day
totalsteps <- summarise(group_by(activitymonitoring,date), total=sum(steps), .groups = 'drop')
totalsteps
```

```
## # A tibble: 61 x 2
##    date       total
##    <date>     <int>
##  1 2012-10-01    NA
##  2 2012-10-02   126
##  3 2012-10-03 11352
##  4 2012-10-04 12116
##  5 2012-10-05 13294
##  6 2012-10-06 15420
##  7 2012-10-07 11015
##  8 2012-10-08    NA
##  9 2012-10-09 12811
## 10 2012-10-10  9900
## # ... with 51 more rows
```
…
4. Make a histogram of the total number of steps taken each day and Calculate and report the mean and median total number of steps taken per day. Do these values differ from the estimates from the first part of the assignment? What is the impact of imputing missing data on the estimates of the total daily number of steps?


```r
#Total number of steps per day
totalstepsnona <- summarise(group_by(activitynona,date), total=sum(steps2), .groups ='drop')
totalstepsnona
```

```
## # A tibble: 61 x 2
##    date       total
##    <date>     <dbl>
##  1 2012-10-01 10762
##  2 2012-10-02   126
##  3 2012-10-03 11352
##  4 2012-10-04 12116
##  5 2012-10-05 13294
##  6 2012-10-06 15420
##  7 2012-10-07 11015
##  8 2012-10-08 10762
##  9 2012-10-09 12811
## 10 2012-10-10  9900
## # ... with 51 more rows
```
…
